{
  "projects": [
    {
      "name": "SpaceX Labs - Launches",
      "type": "website",
      "description": "A simple web app that would help users list and browse all the launches by the SpaceX program",
      "stack": "ReactJS, Axios, Netlify",
      "weblink": "https://spacexlabs.netlify.app/",
      "sourcecode": "https://gitlab.com/VaibhavVinayak/space-x",
      "thumbnail": "/thumbnails/spacex-labs.png",
      "screenshots": [""]
    },
    {
      "name": "CurEx",
      "type": "webapp",
      "fullstack": false,
      "description": "A static web tool to convert currencies. Build with PWA approach for installability and app-like experience.",
      "stack": "HTML, CSS, PWA",
      "weblink": "https://vaibhavvinayak.gitlab.io/curex",
      "sourcecode": "https://gitlab.com/VaibhavVinayak/curex",
      "thumbnail": "/thumbnails/curex.png",
      "screenshots": [""]
    },
    {
      "name": "CR7.com",
      "type": "website",
      "description": "Clone of <a href=\"https://www.cristianoronaldo.com/\">cr7.com</a>, the official website of my favourite football player.",
      "stack": "ReactJS, Styled Components, Firebase, PWA",
      "weblink": "https://cr7.web.app",
      "thumbnail": "/thumbnails/cr7-3.png",
      "screenshots": [""]
    },
    {
      "name": "Foodzapp",
      "type": "webapp",
      "fullstack": true,
      "description": "A simple restaurant app with option to Order, Sell, Deliver food.",
      "stack": "ReactJS, MaterializeCSS, Firebase, PWA",
      "weblink": "https://foodzapp.web.app",
      "thumbnail": "/thumbnails/foodzapp.png",
      "screenshots": [""]
    },
    {
      "name": "Reactagram",
      "type": "webapp",
      "fullstack": false,
      "description": "Clone of Instagram built in React and uses PWA approach for an immersive native app like experience",
      "stack": "ReactJS, Styled Components, Firebase, PWA, NodeJS, ExpressJS, MongoDB, Mongoose",
      "weblink": "https://reactagram.web.app",
      "sourcecode": "https://gitlab.com/VaibhavVinayak/reactagram",
      "thumbnail": "/thumbnails/reactagram.png",
      "screenshots": [""]
    },
    {
      "name": "DocMan",
      "type": "webapp",
      "fullstack": true,
      "description": "A handy web-based tool to upload, manage and share docs built with PWA approach to provide app-like experience to all platforms altogether.",
      "stack": "ReactJS, Material-UI, NodeJS, ExpressJS, MongoDB, Firebase, PWA",
      "weblink": "https://doc-man.web.app",
      "thumbnail": "/thumbnails/doc-man.png",
      "screenshots": [""]
    },
    {
      "name": "Arrowverse",
      "type": "website",
      "description": "A fandom site for my favourite series.... rather series multiverse.",
      "stack": "ReactJS, Bootstrap, Firebase, PWA",
      "weblink": "https://arrowverse.web.app",
      "sourcecode": "https://gitlab.com/VaibhavVinayak/arrowverse",
      "thumbnail": "/thumbnails/arrowverse.jpg",
      "screenshots": [""]
    },
    {
      "name": "D-App",
      "type": "app",
      "description": "A dating app built with React Native.",
      "stack": "React Native, Firebase",
      "weblink": "https://d-app.web.app/",
      "sourcecode": "https://gitlab.com/VaibhavVinayak/d-app",
      "thumbnail": "/thumbnails/d-app.png",
      "screenshots": [""]
    },
    {
      "name": "RNgram",
      "type": "app",
      "description": "Clone of Instagram build in React Native.",
      "stack": "React Native, Firebase",
      "weblink": "https://vaibhavvinayak.gitlab.io/rngram",
      "sourcecode": "https://gitlab.com/VaibhavVinayak/rngram",
      "thumbnail": "/thumbnails/reactagram.png",
      "screenshots": [""]
    },
    {
      "name": "Foodzapp (Native app)",
      "type": "app",
      "description": "A simple React Native restaurant app with option to Order, Sell, Deliver food.",
      "stack": "ReactJS Native, Firebase",
      "weblink": "https://foodzapp.web.app/download",
      "thumbnail": "/thumbnails/foodzapp.png",
      "screenshots": [""]
    }
  ]
}
